<svg width="157" height="154" viewBox="0 0 157 154" fill="none" xmlns="http://www.w3.org/2000/svg">
<rect width="156.855" height="154" rx="30" fill="#889EAF"/>
<g clip-path="url(#clip0_6_206)">
<path d="M121.099 83.2114C120.064 83.0155 119.067 83.6798 118.868 84.6936C115.083 103.982 97.7908 117.981 77.7522 117.981C58.1357 117.981 41.1517 104.565 36.8933 85.9055L37.3904 86.3935C37.7623 86.7587 38.2496 86.9413 38.737 86.9413C39.2243 86.9413 39.7116 86.7587 40.0834 86.3937C40.8272 85.6636 40.8272 84.4799 40.0835 83.7495L36.1672 79.9043C35.8101 79.5535 35.3256 79.3564 34.8206 79.3564C34.3156 79.3564 33.8311 79.5535 33.474 79.9043L29.5578 83.7495C28.8142 84.4797 28.8142 85.6634 29.558 86.3937C30.3015 87.124 31.5075 87.1238 32.2512 86.3935L32.9562 85.7013C37.2062 106.591 55.9952 121.721 77.7522 121.721C99.6132 121.721 118.478 106.446 122.608 85.4013C122.807 84.3873 122.132 83.4068 121.099 83.2114Z" fill="currentColor"/>
<path d="M125.946 67.336C125.203 66.6057 123.997 66.6059 123.253 67.3362L122.548 68.0284C118.298 47.1387 99.5092 32.0091 77.7522 32.0091C55.8913 32.0091 37.0265 47.2836 32.8961 68.3284C32.6971 69.3426 33.3729 70.3229 34.4057 70.5183C35.4398 70.7133 36.4371 70.0497 36.6361 69.0361C40.4218 49.7479 57.7138 35.7485 77.7522 35.7485C97.3687 35.7485 114.353 49.1644 118.611 67.8242L118.114 67.3362C117.371 66.6061 116.165 66.6059 115.421 67.336C114.677 68.0661 114.677 69.2498 115.421 69.9802L119.337 73.8254C119.694 74.1762 120.178 74.3733 120.683 74.3733C121.188 74.3733 121.673 74.1762 122.03 73.8254L125.946 69.9802C126.69 69.25 126.69 68.0661 125.946 67.336Z" fill="currentColor"/>
<path d="M77.7523 108.47C95.5026 108.47 109.944 94.2922 109.944 76.8649C109.944 59.4376 95.5026 45.2593 77.7523 45.2593C60.0019 45.2593 45.5608 59.4376 45.5608 76.8649C45.5608 94.2922 60.0019 108.47 77.7523 108.47ZM77.7523 48.9987C93.4026 48.9987 106.135 61.4993 106.135 76.8649C106.135 92.2304 93.4026 104.731 77.7523 104.731C62.1019 104.731 49.3696 92.2304 49.3696 76.8649C49.3696 61.4993 62.1019 48.9987 77.7523 48.9987Z" fill="currentColor"/>
<path d="M79.7617 85.1069C79.9926 85.1972 80.2306 85.2399 80.4648 85.2399C81.222 85.2399 81.9381 84.7934 82.235 84.0604L87.5053 71.0511C87.894 70.0916 87.4168 69.0043 86.4396 68.6227C85.4627 68.2413 84.3549 68.7095 83.9662 69.6692L78.6959 82.6785C78.3072 83.6381 78.7844 84.7253 79.7617 85.1069Z" fill="currentColor"/>
<path d="M90.5236 72.2298H94.896L90.245 82.6172C89.8216 83.5625 90.2591 84.6657 91.2219 85.0813C91.4714 85.189 91.7313 85.2401 91.9875 85.2401C92.7199 85.2399 93.4182 84.8227 93.7317 84.1223L99.5568 71.1128C99.8156 70.5345 99.7598 69.8672 99.4083 69.3385C99.0565 68.8095 98.4568 68.4907 97.8135 68.4907H90.5238C89.4722 68.4907 88.6194 69.328 88.6194 70.3604C88.6192 71.3925 89.4718 72.2298 90.5236 72.2298Z" fill="currentColor"/>
<path d="M66.1465 80.4805C66.4891 81.0502 67.1126 81.3997 67.7863 81.3997H72.4955C72.4901 82.0889 72.4846 82.7491 72.4793 83.3535C72.4703 84.3862 73.3157 85.2304 74.3673 85.2393H74.384C75.428 85.2393 76.2789 84.4127 76.288 83.3857C76.2924 82.8964 76.2981 82.202 76.3046 81.3898C77.2637 81.2927 78.0119 80.4972 78.0119 79.53C78.0119 78.5712 77.277 77.781 76.3299 77.6728C76.3471 74.6294 76.3536 71.5655 76.3147 71.1067C76.2128 69.9043 75.4648 68.9202 74.409 68.599C73.3547 68.2789 72.2462 68.6652 71.4431 69.6326C70.689 70.5407 67.4687 76.225 66.119 78.6267C65.7934 79.2061 65.8039 79.9108 66.1465 80.4805ZM72.5324 75.0494C72.5296 75.8569 72.5256 76.7456 72.5204 77.6602H71.0255C71.5547 76.7345 72.0691 75.8425 72.5324 75.0494Z" fill="currentColor"/>
<path d="M64.9946 85.3366C66.0462 85.3237 66.8879 84.4759 66.8748 83.4435C66.8619 82.419 66.0117 81.5973 64.9712 81.5973C64.963 81.5973 64.9548 81.5973 64.9466 81.5975C63.904 81.6102 62.8086 81.6197 61.8189 81.6244C62.5041 80.7137 63.3837 79.5202 64.4949 77.9614C65.3715 76.7319 65.9445 75.563 66.1986 74.4873C66.261 74.2487 66.3128 73.9112 66.3134 73.5618C66.3176 70.6951 63.9381 68.363 61.0183 68.363C58.4938 68.363 56.3089 70.1266 55.8225 72.5561C55.6199 73.5693 56.292 74.552 57.3242 74.7511C58.3569 74.9506 59.3573 74.2902 59.5599 73.2769C59.6961 72.5963 60.3095 72.1025 61.0183 72.1025C61.8053 72.1025 62.4513 72.7064 62.5014 73.4668L62.4681 73.7228C62.3544 74.1493 62.0708 74.8403 61.3746 75.8171C59.2803 78.7548 58.0311 80.3607 57.36 81.2234C56.4994 82.3297 56.0254 82.939 56.3421 83.9509C56.5285 84.5457 57.0042 85.0202 57.6161 85.2206C57.8703 85.3038 58.0739 85.3704 60.6747 85.3704C61.6958 85.3702 63.0864 85.3601 64.9946 85.3366Z" fill="currentColor"/>
</g>
<defs>
<clipPath id="clip0_6_206">
<rect width="97.5043" height="95.7297" fill="white" transform="translate(29 29)"/>
</clipPath>
</defs>
</svg>
