<svg width="36" height="37" viewBox="0 0 36 37" fill="none" xmlns="http://www.w3.org/2000/svg">
<ellipse cx="18.2071" cy="18.6315" rx="17.3316" ry="18.1949" fill="#B5CDA3"/>
<g clip-path="url(#clip0_26_351)">
<path d="M10.3291 19.4587H24.1831L21.589 22.1821C21.2813 22.5051 21.2813 23.0287 21.589 23.3517C21.7428 23.5132 21.9444 23.5939 22.146 23.5939C22.3477 23.5939 22.5493 23.5132 22.7031 23.3517L26.6421 19.2165C26.9497 18.8935 26.9497 18.3698 26.6421 18.0468L22.7031 13.9116C22.3955 13.5887 21.8966 13.5887 21.589 13.9116C21.2813 14.2346 21.2813 14.7582 21.589 15.0812L24.1831 17.8046H10.3291C9.89398 17.8046 9.54126 18.1749 9.54126 18.6317C9.54126 19.0884 9.89398 19.4587 10.3291 19.4587Z" fill="white"/>
</g>
<defs>
<clipPath id="clip0_26_351">
<rect width="17.3316" height="18.1949" fill="white" transform="translate(9.54126 9.53418)"/>
</clipPath>
</defs>
</svg>
