<svg width="100" height="100" viewBox="0 0 100 100" fill="none" xmlns="http://www.w3.org/2000/svg">
<g clip-path="url(#clip0_2138_1308)">
<path d="M80.8676 29.2324L64.358 26.8334L56.9746 11.8733C54.1228 6.09454 45.8765 6.0963 43.0258 11.8731L35.6424 26.8332L19.1328 29.2324C12.7553 30.159 10.2095 38.0018 14.8224 42.4986L26.7689 54.1436L23.9488 70.586C22.8595 76.9377 29.5312 81.7822 35.2338 78.7852L50.0004 71.0215L64.7672 78.7852C70.4617 81.7787 77.1412 76.9367 76.0521 70.586L73.232 54.1434L85.1787 42.4985C89.7924 38 87.2424 30.1588 80.8676 29.2324ZM80.5246 37.7248L67.3232 50.5928C66.5377 51.3586 66.1793 52.4619 66.3646 53.5432L69.481 71.7133C69.6375 72.6258 68.6881 73.3149 67.8689 72.8846L51.5512 64.3059C50.5803 63.7955 49.4199 63.7955 48.449 64.3059L32.1312 72.8846C31.3117 73.3153 30.3627 72.6256 30.5191 71.7133L33.6355 53.5432C33.8209 52.4619 33.4625 51.3586 32.6769 50.5928L19.4756 37.7248C18.8125 37.0785 19.1752 35.9629 20.0914 35.8295L38.3351 33.1785C39.4207 33.0207 40.3594 32.3391 40.8449 31.3553L49.0039 14.8235C49.4135 13.9938 50.5867 13.9932 50.9965 14.8236L59.1555 31.3553C59.641 32.3391 60.5797 33.0209 61.6652 33.1785L79.909 35.8295C80.825 35.9629 81.1875 37.0787 80.5246 37.7248Z" fill="currentColor"/>
<path d="M26.3147 9.20938L22.3282 3.72246C21.2458 2.2334 19.1614 1.90293 17.6723 2.98535C16.1831 4.06738 15.8528 6.15195 16.935 7.64121L20.9215 13.1279C22.0044 14.6178 24.0887 14.9469 25.5774 13.865C27.0667 12.7832 27.3969 10.6986 26.3147 9.20938Z" fill="currentColor"/>
<path d="M13.0852 58.3803C12.5167 56.6297 10.6362 55.6707 8.88504 56.2402L2.30379 58.3787C0.553011 58.9476 -0.404997 60.8279 0.163753 62.5789C0.733479 64.3326 2.61707 65.2873 4.36395 64.7189L10.9452 62.5805C12.6962 62.0115 13.6542 60.131 13.0852 58.3803Z" fill="currentColor"/>
<path d="M82.3279 2.98554C80.8388 1.90351 78.7543 2.23339 77.672 3.72265L73.6855 9.20937C72.6033 10.6986 72.9336 12.7834 74.4228 13.8652C75.9127 14.9476 77.997 14.6168 79.0787 13.1281L83.0652 7.6414C84.1472 6.15214 83.8171 4.06738 82.3279 2.98554Z" fill="currentColor"/>
<path d="M97.696 58.3787L91.1148 56.2402C89.364 55.6703 87.4835 56.6295 86.9146 58.3803C86.3456 60.1311 87.3036 62.0117 89.0546 62.5805L95.6359 64.719C97.3829 65.2871 99.2663 64.3324 99.836 62.5789C100.405 60.8281 99.4468 58.9477 97.696 58.3787Z" fill="currentColor"/>
<path d="M50 84.2197C48.1591 84.2197 46.6667 85.7121 46.6667 87.5529V94.3182C46.6667 96.159 48.1591 97.6514 50 97.6514C51.8408 97.6514 53.3332 96.159 53.3332 94.3182V87.5529C53.3334 85.7119 51.841 84.2197 50 84.2197Z" fill="currentColor"/>
</g>
<defs>
<clipPath id="clip0_2138_1308">
<rect width="100" height="100" fill="white"/>
</clipPath>
</defs>
</svg>
