<svg width="50" height="48" viewBox="0 0 50 48" fill="none" xmlns="http://www.w3.org/2000/svg">
<path d="M49.344 19.7229L38.4433 30.3489L41.0175 45.3569C41.1295 46.0132 40.86 46.6764 40.321 47.0684C40.0165 47.2907 39.6543 47.4027 39.292 47.4027C39.0138 47.4027 38.7338 47.3362 38.4783 47.2014L24.9998 40.1157L11.523 47.1997C10.935 47.5112 10.2193 47.4604 9.68029 47.0667C9.14128 46.6747 8.87179 46.0114 8.98379 45.3552L11.558 30.3472L0.655536 19.7229C0.179536 19.2574 0.00628626 18.5609 0.212786 17.9292C0.419286 17.2974 0.967036 16.8337 1.62679 16.7374L16.6925 14.5499L23.43 0.896438C24.0198 -0.298813 25.9798 -0.298813 26.5695 0.896438L33.307 14.5499L48.3728 16.7374C49.0325 16.8337 49.5803 17.2957 49.7868 17.9292C49.9933 18.5627 49.82 19.2557 49.344 19.7229Z" fill="currentColor"/>
</svg>
