<svg width="26" height="26" viewBox="0 0 26 26" fill="none" xmlns="http://www.w3.org/2000/svg">
<path d="M9.44531 0H11.4766V26H9.44531V13.3114L4.58182 18.2334L3.13693 16.8056L5.8938 14.0156H0V11.9844H5.87436L3.1409 9.24913L4.57765 7.81337L9.44531 12.684V0ZM26 11.9844H20.1239L22.8587 9.24933L21.4225 7.81317L16.5547 12.6808V0H14.5234V26H16.5547V13.3146L21.4184 18.2336L22.8629 16.8054L20.1044 14.0156H26V11.9844Z" fill="currentColor" fill-opacity="0.55"/>
</svg>
