<svg width="100" height="100" viewBox="0 0 100 100" fill="none" xmlns="http://www.w3.org/2000/svg">
<path d="M50 76.5625C35.3533 76.5625 23.4375 64.6467 23.4375 50C23.4375 35.3533 35.3533 23.4375 50 23.4375C64.6467 23.4375 76.5625 35.3533 76.5625 50C76.5625 64.6467 64.6467 76.5625 50 76.5625ZM50 29.2969C38.5842 29.2969 29.2969 38.5842 29.2969 50C29.2969 61.4158 38.5842 70.7031 50 70.7031C61.4158 70.7031 70.7031 61.4158 70.7031 50C70.7031 38.5842 61.4158 29.2969 50 29.2969Z" fill="currentColor"/>
<path d="M59.3574 100H40.6426L37.8172 92.4344C34.6133 91.5164 31.5279 90.2377 28.6111 88.6191L21.2613 91.9721L8.02793 78.7387L11.3809 71.3889C9.76231 68.4719 8.48359 65.3867 7.56563 62.1828L0 59.3574V40.6426L7.56563 37.8172C8.48359 34.6133 9.76231 31.5279 11.3809 28.6111L8.02793 21.2613L21.2613 8.02793L28.6111 11.3809C31.5279 9.76231 34.6131 8.48359 37.8172 7.56563L40.6426 0H59.3574L62.1828 7.56563C65.3867 8.48359 68.4721 9.76231 71.3889 11.3809L78.7387 8.02793L91.9721 21.2613L88.6191 28.6111C90.2377 31.5279 91.5164 34.6131 92.4344 37.8172L100 40.6426V59.3574L92.4344 62.1828C91.5164 65.3867 90.2377 68.4719 88.6191 71.3889L91.9721 78.7387L78.7387 91.9721L71.3889 88.6191C68.4721 90.2377 65.3869 91.5164 62.1828 92.4344L59.3574 100ZM44.709 94.1406H55.291L57.7621 87.5236L59.2603 87.1516C62.9443 86.2365 66.4631 84.7783 69.7191 82.8172L71.0418 82.0205L77.4709 84.9535L84.9535 77.4709L82.0205 71.0418L82.8172 69.7191C84.7783 66.4631 86.2365 62.9441 87.1516 59.2603L87.5236 57.7621L94.1406 55.291V44.709L87.5236 42.2379L87.1516 40.7397C86.2365 37.0557 84.7783 33.5369 82.8172 30.2809L82.0205 28.9582L84.9535 22.5291L77.4709 15.0465L71.0418 17.9795L69.7191 17.1828C66.4633 15.2217 62.9443 13.7635 59.2603 12.8484L57.7621 12.4764L55.291 5.85938H44.709L42.2379 12.4764L40.7397 12.8484C37.0557 13.7635 33.5369 15.2217 30.2809 17.1828L28.9582 17.9795L22.5291 15.0465L15.0465 22.5291L17.9795 28.9582L17.1828 30.2809C15.2217 33.5367 13.7635 37.0557 12.8484 40.7397L12.4764 42.2379L5.85938 44.709V55.291L12.4764 57.7621L12.8484 59.2603C13.7635 62.9441 15.2217 66.4629 17.1828 69.7191L17.9795 71.0418L15.0465 77.4709L22.5291 84.9535L28.9582 82.0205L30.2809 82.8172C33.5367 84.7783 37.0557 86.2365 40.7397 87.1516L42.2379 87.5236L44.709 94.1406Z" fill="currentColor"/>
<path d="M47.9285 60.358L37.5703 50L41.7135 45.8568L47.9285 52.0715L58.2865 41.7137L62.4297 45.8568L47.9285 60.358Z" fill="currentColor"/>
</svg>
