<svg width="39" height="39" viewBox="0 0 39 39" fill="none" xmlns="http://www.w3.org/2000/svg">
<g clip-path="url(#clip0_2_48)">
<path d="M33.2886 5.7114C29.6056 2.02837 24.7085 0 19.5 0C14.2915 0 9.39443 2.02837 5.7114 5.7114C2.02837 9.39443 0 14.2915 0 19.5C0 24.7085 2.02837 29.6056 5.7114 33.2886C9.39443 36.9716 14.2915 39 19.5 39C24.7085 39 29.6056 36.9716 33.2886 33.2886C36.9716 29.6056 39 24.7085 39 19.5C39 14.2915 36.9716 9.39443 33.2886 5.7114ZM8.46311 32.7003C9.107 27.16 13.8704 22.8825 19.5 22.8825C22.4677 22.8825 25.2584 24.0388 27.3576 26.1377C29.131 27.9113 30.2495 30.2271 30.5372 32.7001C27.5468 35.2045 23.6966 36.7148 19.5 36.7148C15.3034 36.7148 11.4535 35.2048 8.46311 32.7003ZM19.5 20.5289C16.2344 20.5289 13.5773 17.8718 13.5773 14.6063C13.5773 11.3404 16.2344 8.68359 19.5 8.68359C22.7656 8.68359 25.4227 11.3404 25.4227 14.6063C25.4227 17.8718 22.7656 20.5289 19.5 20.5289ZM32.504 30.7684C31.9217 28.4207 30.7074 26.2561 28.9733 24.522C27.5689 23.1176 25.9074 22.064 24.0953 21.4037C26.2736 19.9264 27.7078 17.4306 27.7078 14.6063C27.7078 10.0806 24.0257 6.39844 19.5 6.39844C14.9743 6.39844 11.2922 10.0806 11.2922 14.6063C11.2922 17.4321 12.7275 19.9288 14.9077 21.4058C13.2405 22.0134 11.6977 22.9527 10.3704 24.1893C8.44823 25.9794 7.11344 28.2618 6.49454 30.7666C3.87346 27.745 2.28516 23.8046 2.28516 19.5C2.28516 10.0077 10.0077 2.28516 19.5 2.28516C28.9923 2.28516 36.7148 10.0077 36.7148 19.5C36.7148 23.8055 35.1259 27.7468 32.504 30.7684Z" fill="currentColor"/>
</g>
<defs>
<clipPath id="clip0_2_48">
<rect width="39" height="39" fill="white"/>
</clipPath>
</defs>
</svg>
